lab2/simulation/qsim/Lab2.msim.vcd
$comment
	File created using the following command:
		vcd file Lab2.msim.vcd -direction
$end
$date
	Wed Jan 31 23:28:50 2024
$end
$version
	ModelSim Version 10.5b
$end
$timescale
	1ps
$end

$scope module Lab2_vlg_vec_tst $end
$var reg 1 ! CLOCK $end
$var reg 1 " DIN0 $end
$var reg 1 # DIN1 $end
$var reg 1 $ FETCH $end
$var reg 1 % LDSBR $end
$var reg 1 & SAR0 $end
$var reg 1 ' SAR1 $end
$var reg 1 ( STORE $end
$var wire 1 ) Q00 $end
$var wire 1 * Q01 $end
$var wire 1 + Q02 $end
$var wire 1 , Q03 $end
$var wire 1 - Q10 $end
$var wire 1 . Q11 $end
$var wire 1 / Q12 $end
$var wire 1 0 Q13 $end
$var wire 1 1 SBR0 $end
$var wire 1 2 SBR1 $end

$scope module i1 $end
$var wire 1 3 gnd $end
$var wire 1 4 vcc $end
$var wire 1 5 unknown $end
$var tri1 1 6 devclrn $end
$var tri1 1 7 devpor $end
$var tri1 1 8 devoe $end
$var wire 1 9 SBR0~output_o $end
$var wire 1 : SBR1~output_o $end
$var wire 1 ; Q01~output_o $end
$var wire 1 < Q00~output_o $end
$var wire 1 = Q02~output_o $end
$var wire 1 > Q03~output_o $end
$var wire 1 ? Q10~output_o $end
$var wire 1 @ Q11~output_o $end
$var wire 1 A Q12~output_o $end
$var wire 1 B Q13~output_o $end
$var wire 1 C CLOCK~input_o $end
$var wire 1 D CLOCK~inputclkctrl_outclk $end
$var wire 1 E STORE~input_o $end
$var wire 1 F SAR1~input_o $end
$var wire 1 G SAR0~input_o $end
$var wire 1 H inst19|15~0_combout $end
$var wire 1 I inst19|15~q $end
$var wire 1 J inst19|14~0_combout $end
$var wire 1 K inst19|14~q $end
$var wire 1 L inst18|4~0_combout $end
$var wire 1 M inst13|22~0_combout $end
$var wire 1 N inst14|41~q $end
$var wire 1 O inst14|40~feeder_combout $end
$var wire 1 P inst14|40~q $end
$var wire 1 Q inst14|39~feeder_combout $end
$var wire 1 R inst14|39~q $end
$var wire 1 S inst14|38~feeder_combout $end
$var wire 1 T inst14|38~q $end
$var wire 1 U LDSBR~input_o $end
$var wire 1 V DIN0~input_o $end
$var wire 1 W inst20|9~0_combout $end
$var wire 1 X FETCH~input_o $end
$var wire 1 Y inst22|4~0_combout $end
$var wire 1 Z inst22|4~1_combout $end
$var wire 1 [ inst20|9~1_combout $end
$var wire 1 \ inst21|9~q $end
$var wire 1 ] inst13|23~0_combout $end
$var wire 1 ^ inst15|41~q $end
$var wire 1 _ inst15|40~q $end
$var wire 1 ` inst15|39~q $end
$var wire 1 a inst15|38~feeder_combout $end
$var wire 1 b inst15|38~q $end
$var wire 1 c DIN1~input_o $end
$var wire 1 d inst20|10~0_combout $end
$var wire 1 e inst20|10~1_combout $end
$var wire 1 f inst21|10~q $end
$upscope $end
$upscope $end
$enddefinitions $end
#0
$dumpvars
1!
0"
1#
0$
1%
0&
0'
0(
0)
0*
0+
0,
0-
0.
0/
00
01
02
03
14
x5
16
17
18
09
0:
0;
0<
0=
0>
0?
0@
0A
0B
1C
1D
0E
0F
0G
1H
0I
0J
0K
1L
0M
0N
0O
0P
0Q
0R
0S
0T
1U
0V
0W
0X
1Y
0Z
0[
0\
0]
0^
0_
0`
0a
0b
1c
1d
1e
0f
$end
#5000
0!
0C
0D
1I
0Y
0L
1J
0H
#10000
1!
1C
1D
1f
1:
12
#15000
0!
0C
0D
0I
1K
1Y
1H
#20000
1!
1C
1D
#25000
0!
0C
0D
1I
0Y
0J
0H
#30000
0%
1!
0U
1C
1D
#35000
0!
0C
0D
0I
0K
1Y
1L
1H
#40000
0#
1%
1!
0c
1U
1C
1D
0d
0e
#45000
0!
0C
0D
1I
0Y
0L
1J
0H
#50000
1!
1C
1D
0f
0:
02
#55000
0!
0C
0D
0I
1K
1Y
1H
#60000
1!
1C
1D
#65000
0!
0C
0D
1I
0Y
0J
0H
#70000
0%
1!
0U
1C
1D
#75000
0!
0C
0D
0I
0K
1Y
1L
1H
#80000
1"
1%
1!
1V
1U
1C
1D
1W
1[
#85000
0!
0C
0D
1I
0Y
0L
1J
0H
#90000
1!
1C
1D
1\
19
11
#95000
0!
0C
0D
0I
1K
1Y
1H
#100000
1!
1C
1D
#105000
0!
0C
0D
1I
0Y
0J
0H
#110000
0%
1!
0U
1C
1D
#115000
0!
0C
0D
0I
0K
1Y
1L
1H
#120000
1#
1%
1!
1c
1U
1C
1D
1d
1e
#125000
0!
0C
0D
1I
0Y
0L
1J
0H
#130000
1!
1C
1D
1f
1:
12
#135000
0!
0C
0D
0I
1K
1Y
1H
#140000
1!
1C
1D
#145000
0!
0C
0D
1I
0Y
0J
0H
#150000
0%
1!
0U
1C
1D
#155000
0!
0C
0D
0I
0K
1Y
1L
1H
#160000
0"
0#
1!
0V
0c
1C
1D
#165000
0!
0C
0D
1I
0Y
0L
1J
0H
#170000
1!
1C
1D
#175000
0!
0C
0D
0I
1K
1Y
1H
#180000
1!
1C
1D
#185000
0!
0C
0D
1I
0Y
0J
0H
#190000
1&
1'
1!
1G
1F
1C
1D
1L
1Y
#195000
0!
0C
0D
0I
0K
0Y
0L
1H
#200000
1(
1!
1E
1C
1D
#205000
0!
0C
0D
1I
1Y
1J
0H
#210000
1!
1C
1D
#215000
0!
0C
0D
0I
1K
0Y
1H
#220000
1!
1C
1D
#225000
0!
0C
0D
1I
1Y
1L
0J
0H
1]
1M
#230000
1!
1C
1D
1^
1N
1<
1?
1-
1)
1O
#235000
0!
0C
0D
0I
0K
0Y
0L
1H
0]
0M
#240000
0(
1!
0E
1C
1D
1_
0^
1P
0N
0<
1;
0?
1@
1.
0-
1*
0)
1Q
0O
#245000
0!
0C
0D
1I
1Y
1J
0H
#250000
1%
1"
1!
1U
1V
1C
1D
0d
0e
1`
0_
1R
0P
0;
1=
0@
1A
1/
0.
1+
0*
1a
1S
0Q
#255000
0!
0C
0D
0I
1K
0Y
1H
#260000
1!
1C
1D
0f
1b
0`
1T
0R
0=
1>
0A
1B
0:
02
10
0/
1,
0+
1]
0a
1M
0S
#265000
0!
0C
0D
1I
1Y
1L
0J
0H
#270000
1!
1C
1D
0b
1^
0T
1N
1<
0>
1?
0B
00
1-
0,
1)
0]
0M
1O
#275000
0!
0C
0D
0I
0K
0Y
0L
1H
#280000
0'
0%
1!
0F
0U
1C
1D
1Y
1_
0^
1P
0N
0<
1;
0?
1@
1.
0-
1*
0)
1Q
0O
#285000
0!
0C
0D
1I
0Y
1J
0H
#290000
1(
0"
1!
1E
0V
1C
1D
1`
0_
1R
0P
0;
1=
0@
1A
1/
0.
1+
0*
1a
1S
0Q
#295000
0!
0C
0D
0I
1K
1Y
1L
1H
1M
#300000
1!
1C
1D
1b
0`
1T
0R
1N
1<
0=
1>
0A
1B
10
0/
1,
0+
1)
0a
0S
1O
#305000
0!
0C
0D
1I
0Y
0L
0J
0H
1]
#310000
1!
1C
1D
0b
1^
0T
1P
1;
0>
1?
0B
00
1-
0,
1*
0]
0M
1Q
#315000
0!
0C
0D
0I
0K
1Y
1H
#320000
1!
1C
1D
1_
0^
1R
0N
0<
1=
0?
1@
1.
0-
1+
0)
1S
0O
#325000
0!
0C
0D
1I
0Y
1J
0H
#330000
0(
1!
0E
1C
1D
1`
0_
1T
0P
0;
1>
0@
1A
1/
0.
1,
0*
1a
1M
0Q
#335000
0!
0C
0D
0I
1K
1Y
1L
1H
#340000
1%
1!
1U
1C
1D
0W
0[
1b
0`
0R
1N
1<
0=
0A
1B
10
0/
0+
1)
1]
0a
0S
1O
#345000
0!
0C
0D
1I
0Y
0L
0J
0H
#350000
1!
1C
1D
0b
1^
0\
0T
1P
1;
0>
09
1?
0B
00
1-
01
0,
1*
0]
0M
1Q
#355000
0!
0C
0D
0I
0K
1Y
1H
#360000
1!
1C
1D
1_
0^
1R
0N
0<
1=
0?
1@
1.
0-
1+
0)
1S
0O
#365000
0!
0C
0D
1I
0Y
1J
0H
#370000
0&
0%
1!
0G
0U
1C
1D
1`
0_
1T
0P
0;
1>
0@
1A
1/
0.
1,
0*
1a
1M
0Q
#375000
0!
0C
0D
0I
1K
1Y
1H
#380000
1(
1!
1E
1C
1D
1b
0`
0R
1N
1<
0=
0A
1B
10
0/
0+
1)
1]
0a
0S
1O
#385000
0!
0C
0D
1I
0Y
0J
0H
#390000
1!
1C
1D
0b
1^
0T
1P
1;
0>
1?
0B
00
1-
0,
1*
0]
0M
1Q
#395000
0!
0C
0D
0I
0K
1Y
1L
1H
#400000
1!
1C
1D
1_
0^
1R
0N
0<
1=
0?
1@
1.
0-
1+
0)
1S
0O
#405000
0!
0C
0D
1I
0Y
0L
1J
0H
#410000
1!
1C
1D
1`
0_
1T
0P
0;
1>
0@
1A
1/
0.
1,
0*
1a
1M
0Q
#415000
0!
0C
0D
0I
1K
1Y
1H
#420000
0(
1!
0E
1C
1D
1b
0`
0R
1N
1<
0=
0A
1B
10
0/
0+
1)
1]
0a
0S
1O
#425000
0!
0C
0D
1I
0Y
0J
0H
#430000
1#
1%
1!
1c
1U
1C
1D
1d
1e
0b
1^
0T
1P
1;
0>
1?
0B
00
1-
0,
1*
0]
0M
1Q
#435000
0!
0C
0D
0I
0K
1Y
1L
1H
#440000
1!
1C
1D
1f
1_
0^
1R
0N
0<
1=
0?
1@
1:
12
1.
0-
1+
0)
1S
0O
#445000
0!
0C
0D
1I
0Y
0L
1J
0H
#450000
1!
1C
1D
1`
0_
1T
0P
0;
1>
0@
1A
1/
0.
1,
0*
1a
1M
0Q
#455000
0!
0C
0D
0I
1K
1Y
1H
#460000
1'
0%
1!
1F
0U
1C
1D
0Y
1b
0`
0R
1N
1<
0=
0A
1B
10
0/
0+
1)
1]
0a
0S
1O
#465000
0!
0C
0D
1I
1Y
0J
0H
#470000
1(
0#
1!
1E
0c
1C
1D
0b
1^
0T
1P
1;
0>
1?
0B
00
1-
0,
1*
0]
0M
1Q
#475000
0!
0C
0D
0I
0K
0Y
1H
#480000
1!
1C
1D
1_
0^
1R
0N
0<
1=
0?
1@
1.
0-
1+
0)
1S
0O
#485000
0!
0C
0D
1I
1Y
1L
1J
0H
1]
#490000
1!
1C
1D
1`
0_
1^
1T
0P
0;
1>
1?
0@
1A
1/
0.
1-
1,
0*
1a
0Q
#495000
0!
0C
0D
0I
1K
0Y
0L
1H
0]
1M
#500000
1!
1C
1D
1b
0`
1_
0^
0R
1N
1<
0=
0?
1@
0A
1B
10
0/
1.
0-
0+
1)
1]
0a
0S
1O
#505000
0!
0C
0D
1I
1Y
0J
0H
#510000
0(
1!
0E
1C
1D
0b
1`
0_
1^
0T
1P
1;
0>
1?
0@
1A
0B
00
1/
0.
1-
0,
1*
0]
1a
0M
1Q
#515000
0!
0C
0D
0I
0K
0Y
1H
#520000
1!
1C
1D
1b
0`
1_
0^
1R
0N
0<
1=
0?
1@
0A
1B
10
0/
1.
0-
1+
0)
1]
0a
1S
0O
#525000
0!
0C
0D
1I
1Y
1L
1J
0H
#530000
1!
1C
1D
0b
1`
0_
1^
1T
0P
0;
1>
1?
0@
1A
0B
00
1/
0.
1-
1,
0*
0]
1a
1M
0Q
#535000
0!
0C
0D
0I
1K
0Y
0L
1H
#540000
1!
1C
1D
1b
0`
1_
0^
0R
1N
1<
0=
0?
1@
0A
1B
10
0/
1.
0-
0+
1)
1]
0a
0S
1O
#545000
0!
0C
0D
1I
1Y
0J
0H
#550000
0'
1!
0F
1C
1D
0Y
0b
1`
0_
1^
0T
1P
1;
0>
1?
0@
1A
0B
00
1/
0.
1-
0,
1*
0]
1a
0M
1Q
#555000
0!
0C
0D
0I
0K
1Y
1L
1H
#560000
1!
1C
1D
1b
0`
1_
0^
1R
0N
0<
1=
0?
1@
0A
1B
10
0/
1.
0-
1+
0)
1]
0a
1S
0O
#565000
0!
0C
0D
1I
0Y
0L
1J
0H
#570000
1!
1C
1D
0b
1`
0_
1^
1T
0P
0;
1>
1?
0@
1A
0B
00
1/
0.
1-
1,
0*
0]
1a
1M
0Q
#575000
0!
0C
0D
0I
1K
1Y
1H
#580000
1!
1C
1D
1b
0`
1_
0^
0R
1N
1<
0=
0?
1@
0A
1B
10
0/
1.
0-
0+
1)
1]
0a
0S
1O
#585000
0!
0C
0D
1I
0Y
0J
0H
#590000
1!
1C
1D
0b
1`
0_
1^
0T
1P
1;
0>
1?
0@
1A
0B
00
1/
0.
1-
0,
1*
0]
1a
0M
1Q
#595000
0!
0C
0D
0I
0K
1Y
1L
1H
#600000
1!
1C
1D
1b
0`
1_
0^
1R
0N
0<
1=
0?
1@
0A
1B
10
0/
1.
0-
1+
0)
1]
0a
1S
0O
#605000
0!
0C
0D
1I
0Y
0L
1J
0H
#610000
1!
1C
1D
0b
1`
0_
1^
1T
0P
0;
1>
1?
0@
1A
0B
00
1/
0.
1-
1,
0*
0]
1a
1M
0Q
#615000
0!
0C
0D
0I
1K
1Y
1H
#620000
1!
1C
1D
1b
0`
1_
0^
0R
1N
1<
0=
0?
1@
0A
1B
10
0/
1.
0-
0+
1)
1]
0a
0S
1O
#625000
0!
0C
0D
1I
0Y
0J
0H
#630000
1&
1'
1!
1G
1F
1C
1D
1L
1Y
0b
1`
0_
1^
0T
1P
1;
0>
1?
0@
1A
0B
00
1/
0.
1-
0,
1*
0]
1a
0M
1Q
#635000
0!
0C
0D
0I
0K
0Y
0L
1H
#640000
1$
1!
1X
1C
1D
1b
0`
1_
0^
1R
0N
0<
1=
0?
1@
0A
1B
10
0/
1.
0-
1+
0)
1]
0a
1S
0O
#645000
0!
0C
0D
1I
1Y
1J
0H
#650000
1!
1C
1D
0b
1`
0_
1^
1T
0P
0;
1>
1?
0@
1A
0B
00
1/
0.
1-
1,
0*
0]
1a
1M
0Q
#655000
0!
0C
0D
0I
1K
0Y
1Z
1H
0Z
0e
1[
1e
0[
#660000
1!
1C
1D
1b
0`
1_
0^
0R
1N
1<
0=
0?
1@
0A
1B
10
0/
1.
0-
0+
1)
1]
0a
0S
1O
#665000
0!
0C
0D
1I
1Y
1L
0J
0H
1Z
1[
#670000
1!
1C
1D
0b
1`
0_
1^
1\
0T
1P
1;
0>
19
1?
0@
1A
0B
1W
00
1/
0.
1-
11
0,
1*
0e
0]
1a
0M
0[
1Q
#675000
0!
0C
0D
0I
0K
0Y
0L
0Z
1H
1e
1[
#680000
0'
0$
1!
0F
0X
1C
1D
1Y
1b
0`
1_
0^
1R
0N
0<
1=
0?
1@
0A
1B
10
0/
1.
0-
1+
0)
1]
0a
1S
0O
#685000
0!
0C
0D
1I
0Y
1J
0H
#690000
1$
1!
1X
1C
1D
0b
1`
0_
1^
1T
0P
0;
1>
1?
0@
1A
0B
00
1/
0.
1-
1,
0*
0]
1a
1M
0Q
#695000
0!
0C
0D
0I
1K
1Y
1L
1H
1Z
0e
#700000
1!
1C
1D
0f
1b
0`
1_
0^
0R
1N
1<
0=
0?
1@
0A
1B
0:
0d
02
10
0/
1.
0-
0+
1)
1]
1e
0a
0S
1O
#705000
0!
0C
0D
1I
0Y
0L
0J
0H
0Z
0e
#710000
1!
1C
1D
0b
1`
0_
1^
0T
1P
1;
0>
1?
0@
1A
0B
00
1/
0.
1-
0,
1*
0]
1a
0M
1Q
#715000
0!
0C
0D
0I
0K
1Y
1H
#720000
1!
1C
1D
1b
0`
1_
0^
1R
0N
0<
1=
0?
1@
0A
1B
10
0/
1.
0-
1+
0)
1]
0a
1S
0O
#725000
0!
0C
0D
1I
0Y
1J
0H
#730000
0&
0$
1!
0G
0X
1C
1D
0b
1`
0_
1^
1T
0P
0;
1>
1?
0@
1A
0B
00
1/
0.
1-
1,
0*
0]
1a
1M
0Q
#735000
0!
0C
0D
0I
1K
1Y
1H
#740000
1$
1!
1X
1C
1D
1b
0`
1_
0^
0R
1N
1<
0=
0?
1@
0A
1B
10
0/
1.
0-
0+
1)
1]
0a
0S
1O
#745000
0!
0C
0D
1I
0Y
0J
0H
#750000
1!
1C
1D
0b
1`
0_
1^
0T
1P
1;
0>
1?
0@
1A
0B
00
1/
0.
1-
0,
1*
0]
1a
0M
1Q
#755000
0!
0C
0D
0I
0K
1Y
1L
1H
1Z
0[
#760000
1!
1C
1D
1b
0`
1_
0^
0\
1R
0N
0<
1=
09
0?
1@
0A
1B
0W
10
0/
1.
0-
01
1+
0)
1e
1]
0a
1S
0O
#765000
0!
0C
0D
1I
0Y
0L
1J
0H
0Z
0e
#770000
1!
1C
1D
0b
1`
0_
1^
1T
0P
0;
1>
1?
0@
1A
0B
00
1/
0.
1-
1,
0*
0]
1a
1M
0Q
#775000
0!
0C
0D
0I
1K
1Y
1H
#780000
1'
0$
1!
1F
0X
1C
1D
0Y
1b
0`
1_
0^
0R
1N
1<
0=
0?
1@
0A
1B
10
0/
1.
0-
0+
1)
1]
0a
0S
1O
#785000
0!
0C
0D
1I
1Y
0J
0H
#790000
1$
1!
1X
1C
1D
0b
1`
0_
1^
0T
1P
1;
0>
1?
0@
1A
0B
00
1/
0.
1-
0,
1*
0]
1a
0M
1Q
#795000
0!
0C
0D
0I
0K
0Y
1Z
1H
0Z
#800000
1!
1C
1D
1b
0`
1_
0^
1R
0N
0<
1=
0?
1@
0A
1B
10
0/
1.
0-
1+
0)
1]
0a
1S
0O
#805000
0!
0C
0D
1I
1Y
1L
1J
0H
1Z
1e
#810000
1!
1C
1D
1f
0b
1`
0_
1^
1T
0P
0;
1>
1?
0@
1A
0B
1:
1d
12
00
1/
0.
1-
1,
0*
0]
0e
1a
1[
1M
0Q
#815000
0!
0C
0D
0I
1K
0Y
0L
0Z
1H
1e
0[
#820000
1!
1C
1D
1b
0`
1_
0^
0R
1N
1<
0=
0?
1@
0A
1B
10
0/
1.
0-
0+
1)
1]
0a
0S
1O
#825000
0!
0C
0D
1I
1Y
0J
0H
#830000
0'
0$
1!
0F
0X
1C
1D
0Y
0b
1`
0_
1^
0T
1P
1;
0>
1?
0@
1A
0B
00
1/
0.
1-
0,
1*
0]
1a
0M
1Q
#835000
0!
0C
0D
0I
0K
1Y
1L
1H
#840000
1!
1C
1D
1b
0`
1_
0^
1R
0N
0<
1=
0?
1@
0A
1B
10
0/
1.
0-
1+
0)
1]
0a
1S
0O
#845000
0!
0C
0D
1I
0Y
0L
1J
0H
#850000
1!
1C
1D
0b
1`
0_
1^
1T
0P
0;
1>
1?
0@
1A
0B
00
1/
0.
1-
1,
0*
0]
1a
1M
0Q
#855000
0!
0C
0D
0I
1K
1Y
1H
#860000
1!
1C
1D
1b
0`
1_
0^
0R
1N
1<
0=
0?
1@
0A
1B
10
0/
1.
0-
0+
1)
1]
0a
0S
1O
#865000
0!
0C
0D
1I
0Y
0J
0H
#870000
1!
1C
1D
0b
1`
0_
1^
0T
1P
1;
0>
1?
0@
1A
0B
00
1/
0.
1-
0,
1*
0]
1a
0M
1Q
#875000
0!
0C
0D
0I
0K
1Y
1L
1H
#880000
1!
1C
1D
1b
0`
1_
0^
1R
0N
0<
1=
0?
1@
0A
1B
10
0/
1.
0-
1+
0)
1]
0a
1S
0O
#885000
0!
0C
0D
1I
0Y
0L
1J
0H
#890000
1!
1C
1D
0b
1`
0_
1^
1T
0P
0;
1>
1?
0@
1A
0B
00
1/
0.
1-
1,
0*
0]
1a
1M
0Q
#895000
0!
0C
0D
0I
1K
1Y
1H
#900000
1!
1C
1D
1b
0`
1_
0^
0R
1N
1<
0=
0?
1@
0A
1B
10
0/
1.
0-
0+
1)
1]
0a
0S
1O
#905000
0!
0C
0D
1I
0Y
0J
0H
#910000
1!
1C
1D
0b
1`
0_
1^
0T
1P
1;
0>
1?
0@
1A
0B
00
1/
0.
1-
0,
1*
0]
1a
0M
1Q
#915000
0!
0C
0D
0I
0K
1Y
1L
1H
#920000
1!
1C
1D
1b
0`
1_
0^
1R
0N
0<
1=
0?
1@
0A
1B
10
0/
1.
0-
1+
0)
1]
0a
1S
0O
#925000
0!
0C
0D
1I
0Y
0L
1J
0H
#930000
1!
1C
1D
0b
1`
0_
1^
1T
0P
0;
1>
1?
0@
1A
0B
00
1/
0.
1-
1,
0*
0]
1a
1M
0Q
#935000
0!
0C
0D
0I
1K
1Y
1H
#940000
1!
1C
1D
1b
0`
1_
0^
0R
1N
1<
0=
0?
1@
0A
1B
10
0/
1.
0-
0+
1)
1]
0a
0S
1O
#945000
0!
0C
0D
1I
0Y
0J
0H
#950000
1!
1C
1D
0b
1`
0_
1^
0T
1P
1;
0>
1?
0@
1A
0B
00
1/
0.
1-
0,
1*
0]
1a
0M
1Q
#955000
0!
0C
0D
0I
0K
1Y
1L
1H
#960000
1!
1C
1D
1b
0`
1_
0^
1R
0N
0<
1=
0?
1@
0A
1B
10
0/
1.
0-
1+
0)
1]
0a
1S
0O
#965000
0!
0C
0D
1I
0Y
0L
1J
0H
#970000
1!
1C
1D
0b
1`
0_
1^
1T
0P
0;
1>
1?
0@
1A
0B
00
1/
0.
1-
1,
0*
0]
1a
1M
0Q
#975000
0!
0C
0D
0I
1K
1Y
1H
#980000
1!
1C
1D
1b
0`
1_
0^
0R
1N
1<
0=
0?
1@
0A
1B
10
0/
1.
0-
0+
1)
1]
0a
0S
1O
#985000
0!
0C
0D
1I
0Y
0J
0H
#990000
1!
1C
1D
0b
1`
0_
1^
0T
1P
1;
0>
1?
0@
1A
0B
00
1/
0.
1-
0,
1*
0]
1a
0M
1Q
#995000
0!
0C
0D
0I
0K
1Y
1L
1H
