lab3/simulation/qsim/lab3.msim.vcd
$comment
	File created using the following command:
		vcd file lab3.msim.vcd -direction
$end
$date
	Fri Mar 01 19:06:25 2024
$end
$version
	ModelSim Version 10.5b
$end
$timescale
	1ps
$end

$scope module lab3_vlg_vec_tst $end
$var reg 1 ! CLK $end
$var reg 1 " D0 $end
$var reg 1 # D1 $end
$var reg 1 $ D2 $end
$var reg 1 % D3 $end
$var reg 1 & EXECUTE $end
$var reg 1 ' F0 $end
$var reg 1 ( F1 $end
$var reg 1 ) F2 $end
$var reg 1 * LOAD_A $end
$var reg 1 + LOAD_B $end
$var reg 1 , R0 $end
$var reg 1 - R1 $end
$var wire 1 . RA0 $end
$var wire 1 / RA1 $end
$var wire 1 0 RA2 $end
$var wire 1 1 RA3 $end
$var wire 1 2 RB0 $end
$var wire 1 3 RB1 $end
$var wire 1 4 RB2 $end
$var wire 1 5 RB3 $end

$scope module i1 $end
$var wire 1 6 gnd $end
$var wire 1 7 vcc $end
$var wire 1 8 unknown $end
$var tri1 1 9 devclrn $end
$var tri1 1 : devpor $end
$var tri1 1 ; devoe $end
$var wire 1 < RA0~output_o $end
$var wire 1 = RA1~output_o $end
$var wire 1 > RA2~output_o $end
$var wire 1 ? RA3~output_o $end
$var wire 1 @ RB0~output_o $end
$var wire 1 A RB1~output_o $end
$var wire 1 B RB2~output_o $end
$var wire 1 C RB3~output_o $end
$var wire 1 D CLK~input_o $end
$var wire 1 E CLK~inputclkctrl_outclk $end
$var wire 1 F LOAD_A~input_o $end
$var wire 1 G EXECUTE~input_o $end
$var wire 1 H inst16|39~0_combout $end
$var wire 1 I inst16|39~q $end
$var wire 1 J inst17~combout $end
$var wire 1 K inst16|40~q $end
$var wire 1 L inst19~combout $end
$var wire 1 M inst16|38~q $end
$var wire 1 N inst20~combout $end
$var wire 1 O inst16|41~q $end
$var wire 1 P inst4~combout $end
$var wire 1 Q D1~input_o $end
$var wire 1 R D3~input_o $end
$var wire 1 S inst|34~0_combout $end
$var wire 1 T inst|34~1_combout $end
$var wire 1 U inst|38~q $end
$var wire 1 V D2~input_o $end
$var wire 1 W inst|35~0_combout $end
$var wire 1 X inst|35~1_combout $end
$var wire 1 Y inst|39~q $end
$var wire 1 Z inst|36~0_combout $end
$var wire 1 [ inst|36~1_combout $end
$var wire 1 \ inst|40~q $end
$var wire 1 ] inst|37~0_combout $end
$var wire 1 ^ D0~input_o $end
$var wire 1 _ R1~input_o $end
$var wire 1 ` F2~input_o $end
$var wire 1 a R0~input_o $end
$var wire 1 b LOAD_B~input_o $end
$var wire 1 c inst1|36~0_combout $end
$var wire 1 d inst5~combout $end
$var wire 1 e inst1|37~0_combout $end
$var wire 1 f F0~input_o $end
$var wire 1 g F1~input_o $end
$var wire 1 h inst7|9~0_combout $end
$var wire 1 i inst1|37~1_combout $end
$var wire 1 j inst1|37~2_combout $end
$var wire 1 k inst1|37~3_combout $end
$var wire 1 l inst1|41~q $end
$var wire 1 m inst1|36~1_combout $end
$var wire 1 n inst1|40~q $end
$var wire 1 o inst1|35~0_combout $end
$var wire 1 p inst1|35~1_combout $end
$var wire 1 q inst1|39~q $end
$var wire 1 r inst1|34~0_combout $end
$var wire 1 s inst1|34~1_combout $end
$var wire 1 t inst1|38~q $end
$var wire 1 u inst|37~1_combout $end
$var wire 1 v inst|37~2_combout $end
$var wire 1 w inst|37~3_combout $end
$var wire 1 x inst|41~q $end
$upscope $end
$upscope $end
$enddefinitions $end
#0
$dumpvars
0!
0"
0#
0$
0%
0&
0'
0(
0)
0*
0+
0,
0-
0.
0/
00
01
02
03
04
05
06
17
x8
19
1:
1;
0<
0=
0>
0?
0@
0A
0B
0C
0D
0E
0F
0G
0H
0I
0J
0K
0L
0M
0N
0O
0P
0Q
0R
0S
0T
0U
0V
0W
0X
0Y
0Z
0[
0\
0]
0^
0_
0`
0a
0b
0c
0d
0e
0f
0g
0h
0i
0j
0k
0l
0m
0n
0o
0p
0q
0r
0s
0t
0u
0v
0w
0x
$end
#5000
1!
1D
1E
#10000
1#
1"
0!
1Q
1^
0D
0E
#15000
1!
1D
1E
#20000
0!
0D
0E
#25000
1!
1D
1E
#30000
1*
0!
1F
0D
0E
1]
1Z
1W
1P
1w
1[
#35000
1!
1D
1E
1x
1\
1=
1<
1.
1/
#40000
0!
0D
0E
#45000
1!
1D
1E
#50000
0#
0"
0*
0!
0Q
0^
0F
0D
0E
0W
0P
0[
0w
1X
0X
1w
1[
#55000
1!
1D
1E
#60000
0!
0D
0E
#65000
1!
1D
1E
#70000
1%
1$
0!
1R
1V
0D
0E
#75000
1!
1D
1E
#80000
0!
0D
0E
#85000
1!
1D
1E
#90000
1*
0!
1F
0D
0E
1W
1P
1T
1X
0w
0[
#95000
1!
1D
1E
0x
0\
1Y
1U
1?
1>
0=
0<
1v
0.
0/
10
11
#100000
0!
0D
0E
#105000
1!
1D
1E
#110000
0%
0$
0*
0!
0R
0V
0F
0D
0E
0]
0Z
1S
0P
0T
1T
#115000
1!
1D
1E
#120000
0!
0D
0E
#125000
1!
1D
1E
#130000
0!
0D
0E
#135000
1!
1D
1E
#140000
0!
0D
0E
#145000
1!
1D
1E
#150000
1*
0!
1F
0D
0E
1]
1Z
0S
1P
0X
0T
#155000
1!
1D
1E
0Y
0U
0?
0>
0v
00
01
#160000
0!
0D
0E
#165000
1!
1D
1E
#170000
0*
0!
0F
0D
0E
0]
0Z
0W
0P
1X
0X
#175000
1!
1D
1E
#180000
0!
0D
0E
#185000
1!
1D
1E
#190000
1#
1"
0!
1Q
1^
0D
0E
#195000
1!
1D
1E
#200000
0!
0D
0E
#205000
1!
1D
1E
#210000
1+
0!
1b
0D
0E
1o
1e
1d
1c
1k
1m
#215000
1!
1D
1E
1n
1l
1@
1A
13
12
#220000
0!
0D
0E
#225000
1!
1D
1E
#230000
0#
0"
0+
0!
0Q
0^
0b
0D
0E
0o
0d
0m
0k
1p
0p
1m
1k
#235000
1!
1D
1E
#240000
0!
0D
0E
#245000
1!
1D
1E
#250000
1%
1$
0!
1R
1V
0D
0E
#255000
1!
1D
1E
#260000
0!
0D
0E
#265000
1!
1D
1E
#270000
1+
0!
1b
0D
0E
1o
1d
1s
1p
0m
0k
#275000
1!
1D
1E
1t
1q
0n
0l
0@
0A
1B
1C
1j
15
14
03
02
#280000
0!
0D
0E
#285000
1!
1D
1E
#290000
0%
0$
0+
0!
0R
0V
0b
0D
0E
1r
0e
0d
0c
0s
1s
#295000
1!
1D
1E
#300000
0!
0D
0E
#305000
1!
1D
1E
#310000
0!
0D
0E
#315000
1!
1D
1E
#320000
0!
0D
0E
#325000
1!
1D
1E
#330000
1+
0!
1b
0D
0E
0r
1e
1d
1c
0p
0s
#335000
1!
1D
1E
0t
0q
0B
0C
0j
05
04
#340000
0!
0D
0E
#345000
1!
1D
1E
#350000
0+
0!
0b
0D
0E
0o
0e
0d
0c
1p
0p
#355000
1!
1D
1E
#360000
0!
0D
0E
#365000
1!
1D
1E
#370000
0!
0D
0E
#375000
1!
1D
1E
#380000
0!
0D
0E
#385000
1!
1D
1E
#390000
0!
0D
0E
#395000
1!
1D
1E
#400000
1#
1%
1$
0!
1Q
1R
1V
0D
0E
#405000
1!
1D
1E
#410000
0!
0D
0E
#415000
1!
1D
1E
#420000
1*
0!
1F
0D
0E
1]
1Z
1W
1P
1T
1[
1X
#425000
1!
1D
1E
1\
1Y
1U
1?
1>
1=
1v
1/
10
11
#430000
0!
0D
0E
#435000
1!
1D
1E
#440000
1"
0%
0*
0!
1^
0R
0F
0D
0E
0]
1S
0P
1w
0T
0w
1T
#445000
1!
1D
1E
#450000
0!
0D
0E
#455000
1!
1D
1E
#460000
1+
0!
1b
0D
0E
1o
1e
1d
1c
1p
1k
1m
#465000
1!
1D
1E
1q
1n
1l
1@
1A
1B
14
13
12
#470000
0!
0D
0E
#475000
1!
1D
1E
#480000
0#
0$
0"
0+
0!
0Q
0V
0^
0b
0D
0E
0d
0m
0k
1m
1k
#485000
1!
1D
1E
#490000
0!
0D
0E
#495000
1!
1D
1E
#500000
1&
0!
1G
0D
0E
1N
1L
1J
#505000
1!
1D
1E
1O
1M
1K
1r
0e
1d
0c
0Z
1P
0L
1H
1s
0k
0[
1w
#510000
0!
0D
0E
#515000
1!
1D
1E
0M
1I
1x
1t
0l
0\
0=
0@
1C
1<
1j
1h
0W
1.
15
02
0/
1L
1[
0m
1u
1i
1k
0X
#520000
0!
0D
0E
#525000
1!
1D
1E
1M
0n
1l
1\
0Y
0>
1=
1@
0A
0o
1W
0S
03
12
1/
00
0L
0H
1m
0p
1X
0T
#530000
0!
0D
0E
#535000
1!
1D
1E
0M
0I
0q
1n
1Y
0U
0?
1>
1A
0B
0r
1o
1S
0v
0h
04
13
10
01
0N
0u
0i
0s
1p
1T
0w
#540000
0!
0D
0E
#545000
1!
1D
1E
0O
0x
0t
1q
1U
1?
1B
0C
0<
1e
0d
1c
1Z
0P
0j
1v
0.
05
14
11
0[
1[
#550000
0!
0D
0E
#555000
1!
1D
1E
#560000
0!
0D
0E
#565000
1!
1D
1E
#570000
0!
0D
0E
#575000
1!
1D
1E
#580000
0!
0D
0E
#585000
1!
1D
1E
#590000
0!
0D
0E
#595000
1!
1D
1E
#600000
1,
1%
1#
1$
0&
0!
1a
1R
1Q
1V
0G
0D
0E
0J
#605000
1!
1D
1E
0K
#610000
0!
0D
0E
#615000
1!
1D
1E
#620000
1*
0!
1F
0D
0E
1]
0S
1P
#625000
1!
1D
1E
#630000
0!
0D
0E
#635000
1!
1D
1E
#640000
1"
0%
0*
0!
1^
0R
0F
0D
0E
0]
1S
0P
1w
0T
0w
1T
#645000
1!
1D
1E
#650000
0!
0D
0E
#655000
1!
1D
1E
#660000
1+
0!
1b
0D
0E
1d
#665000
1!
1D
1E
#670000
0!
0D
0E
#675000
1!
1D
1E
#680000
0#
0$
0"
0+
0!
0Q
0V
0^
0b
0D
0E
0d
0m
0k
1m
1k
#685000
1!
1D
1E
#690000
0!
0D
0E
#695000
1!
1D
1E
#700000
1&
0!
1G
0D
0E
1N
1L
1J
#705000
1!
1D
1E
1O
1M
1K
1r
0e
1d
0c
0Z
1P
0L
1H
1s
0k
0[
1w
#710000
0!
0D
0E
#715000
1!
1D
1E
0M
1I
1x
1t
0l
0\
0=
0@
1C
1<
1u
1h
0W
1.
15
02
0/
1L
1[
0m
1i
0X
1j
1k
#720000
0!
0D
0E
#725000
1!
1D
1E
1M
0n
1l
1\
0Y
0>
1=
1@
0A
0o
1W
0S
03
12
1/
00
0L
0H
1m
0p
1X
0T
#730000
0!
0D
0E
#735000
1!
1D
1E
0M
0I
0q
1n
1Y
0U
0?
1>
1A
0B
0r
1o
1S
0v
0h
04
13
10
01
0N
0i
0s
1p
1T
0w
0j
0k
#740000
0!
0D
0E
#745000
1!
1D
1E
0O
0x
0t
1q
0l
1U
1?
0@
1B
0C
0<
0d
1c
1Z
0P
0u
1v
0.
05
14
02
11
0[
0m
1m
1[
#750000
0!
0D
0E
#755000
1!
1D
1E
#760000
0!
0D
0E
#765000
1!
1D
1E
#770000
0!
0D
0E
#775000
1!
1D
1E
#780000
0!
0D
0E
#785000
1!
1D
1E
#790000
0!
0D
0E
#795000
1!
1D
1E
#800000
1-
0,
1%
1#
1$
0&
0!
1_
0a
1R
1Q
1V
0G
0D
0E
0v
1i
0J
#805000
1!
1D
1E
0K
#810000
0!
0D
0E
#815000
1!
1D
1E
#820000
1*
0!
1F
0D
0E
1]
0S
1P
#825000
1!
1D
1E
#830000
0!
0D
0E
#835000
1!
1D
1E
#840000
1"
0%
0*
0!
1^
0R
0F
0D
0E
0]
1S
0P
1w
0T
0w
1T
#845000
1!
1D
1E
#850000
0!
0D
0E
#855000
1!
1D
1E
#860000
1+
0!
1b
0D
0E
1e
1d
1k
#865000
1!
1D
1E
1l
1@
12
#870000
0!
0D
0E
#875000
1!
1D
1E
#880000
0#
0$
0"
0+
0!
0Q
0V
0^
0b
0D
0E
0d
0m
0k
1m
1k
#885000
1!
1D
1E
#890000
0!
0D
0E
#895000
1!
1D
1E
#900000
1&
0!
1G
0D
0E
1N
1L
1J
#905000
1!
1D
1E
1O
1M
1K
1r
0e
1d
0c
0Z
1P
0L
1H
1s
0k
0[
#910000
0!
0D
0E
#915000
1!
1D
1E
0M
1I
1t
0l
0\
0=
0@
1C
1j
1h
0W
15
02
0/
1L
0m
1u
1k
0X
1v
1w
#920000
0!
0D
0E
#925000
1!
1D
1E
1M
1x
0n
1l
0Y
0>
1@
0A
1<
0o
0S
1.
03
12
00
0L
0H
1[
1m
0p
0T
#930000
0!
0D
0E
#935000
1!
1D
1E
0M
0I
0q
1n
1\
0U
0?
1=
1A
0B
0r
1o
1W
0i
0h
04
13
1/
01
0N
0u
0s
1p
1X
0v
0w
#940000
0!
0D
0E
#945000
1!
1D
1E
0O
0x
0t
1q
1Y
1>
1B
0C
0<
1e
0d
1c
1Z
0P
0j
0.
05
14
10
0[
1[
#950000
0!
0D
0E
#955000
1!
1D
1E
#960000
0!
0D
0E
#965000
1!
1D
1E
#970000
0!
0D
0E
#975000
1!
1D
1E
#980000
0!
0D
0E
#985000
1!
1D
1E
#990000
0!
0D
0E
#995000
1!
1D
1E
#1000000
1,
1%
1#
1$
0&
0!
1a
1R
1Q
1V
0G
0D
0E
0J
#1005000
1!
1D
1E
0K
#1010000
0!
0D
0E
#1015000
1!
1D
1E
#1020000
1*
0!
1F
0D
0E
1]
1P
1T
#1025000
1!
1D
1E
1U
1?
1i
11
1j
#1030000
0!
0D
0E
#1035000
1!
1D
1E
#1040000
1"
0%
0*
0!
1^
0R
0F
0D
0E
0]
1S
0P
1w
0T
0w
1T
#1045000
1!
1D
1E
#1050000
0!
0D
0E
#1055000
1!
1D
1E
#1060000
1+
0!
1b
0D
0E
1d
#1065000
1!
1D
1E
#1070000
0!
0D
0E
#1075000
1!
1D
1E
#1080000
0#
0$
0"
0+
0!
0Q
0V
0^
0b
0D
0E
0d
0m
0k
1m
1k
#1085000
1!
1D
1E
#1090000
0!
0D
0E
#1095000
1!
1D
1E
#1100000
1&
0!
1G
0D
0E
1N
1L
1J
#1105000
1!
1D
1E
1O
1M
1K
1r
0e
1d
0c
0Z
1P
0L
1H
1s
0[
#1110000
0!
0D
0E
#1115000
1!
1D
1E
0M
1I
1t
0\
0=
1C
1u
1h
0W
15
0/
1L
1v
0X
1w
#1120000
0!
0D
0E
#1125000
1!
1D
1E
1M
1x
0Y
0>
1<
0S
1.
00
0L
0H
1[
0T
#1130000
0!
0D
0E
#1135000
1!
1D
1E
0M
0I
1\
0U
0?
1=
1W
0i
0h
1/
01
0N
0j
1X
0k
#1140000
0!
0D
0E
#1145000
1!
1D
1E
0O
0l
1Y
1>
0@
0d
1c
1]
1Z
0P
02
10
0m
1m
#1150000
0!
0D
0E
#1155000
1!
1D
1E
#1160000
0!
0D
0E
#1165000
1!
1D
1E
#1170000
0!
0D
0E
#1175000
1!
1D
1E
#1180000
0!
0D
0E
#1185000
1!
1D
1E
#1190000
0!
0D
0E
#1195000
1!
1D
1E
#1200000
1'
0,
1%
1#
0&
0!
1f
0a
1R
1Q
0G
0D
0E
1h
0u
1j
0J
1u
0v
1v
#1205000
1!
1D
1E
0K
#1210000
0!
0D
0E
#1215000
1!
1D
1E
#1220000
1*
0!
1F
0D
0E
1P
0X
1T
0w
#1225000
1!
1D
1E
0x
0Y
1U
1?
0>
0<
1i
0.
00
11
#1230000
0!
0D
0E
#1235000
1!
1D
1E
#1240000
1$
1"
0%
0*
0!
1V
1^
0R
0F
0D
0E
0]
0W
1S
0P
1X
1w
0T
0w
0X
1T
#1245000
1!
1D
1E
#1250000
0!
0D
0E
#1255000
1!
1D
1E
#1260000
1+
0!
1b
0D
0E
0r
1e
1d
0s
1k
#1265000
1!
1D
1E
0t
1l
1@
0C
0j
05
12
#1270000
0!
0D
0E
#1275000
1!
1D
1E
#1280000
0#
0$
0"
0+
0!
0Q
0V
0^
0b
0D
0E
0d
0m
0k
1m
1k
#1285000
1!
1D
1E
#1290000
0!
0D
0E
#1295000
1!
1D
1E
#1300000
1&
0!
1G
0D
0E
1N
1L
1J
#1305000
1!
1D
1E
1O
1M
1K
1r
0e
1d
0c
0Z
1W
0S
1P
0L
1H
1s
0k
0[
1X
0T
1w
#1310000
0!
0D
0E
#1315000
1!
1D
1E
0M
1I
1x
1t
0l
0\
1Y
0U
0?
1>
0=
0@
1C
1<
1j
0W
1S
0i
1.
15
02
0/
10
01
1L
1[
0m
1k
0X
1T
#1320000
0!
0D
0E
#1325000
1!
1D
1E
1M
0n
1l
1\
0Y
1U
1?
0>
1=
1@
0A
0o
1W
0S
1i
03
12
1/
00
11
0L
0H
1m
0p
1X
0T
#1330000
0!
0D
0E
#1335000
1!
1D
1E
0M
0I
0q
1n
1Y
0U
0?
1>
1A
0B
0r
1o
1S
0i
04
13
10
01
0N
0s
1p
1T
#1340000
0!
0D
0E
#1345000
1!
1D
1E
0O
0t
1q
1U
1?
1B
0C
1e
0d
1c
1]
1Z
0P
0j
1i
05
14
11
#1350000
0!
0D
0E
#1355000
1!
1D
1E
#1360000
0!
0D
0E
#1365000
1!
1D
1E
#1370000
0!
0D
0E
#1375000
1!
1D
1E
#1380000
0!
0D
0E
#1385000
1!
1D
1E
#1390000
0!
0D
0E
#1395000
1!
1D
1E
#1400000
1(
0'
1%
1#
0&
0!
1g
0f
1R
1Q
0G
0D
0E
0J
#1405000
1!
1D
1E
0K
#1410000
0!
0D
0E
#1415000
1!
1D
1E
#1420000
1*
0!
1F
0D
0E
0S
1P
0X
0w
#1425000
1!
1D
1E
0x
0Y
0>
0<
0.
00
#1430000
0!
0D
0E
#1435000
1!
1D
1E
#1440000
1$
1"
0%
0*
0!
1V
1^
0R
0F
0D
0E
0]
0W
1S
0P
1X
1w
0T
0w
0X
1T
#1445000
1!
1D
1E
#1450000
0!
0D
0E
#1455000
1!
1D
1E
#1460000
1+
0!
1b
0D
0E
1d
#1465000
1!
1D
1E
#1470000
0!
0D
0E
#1475000
1!
1D
1E
#1480000
0#
0$
0"
0+
0!
0Q
0V
0^
0b
0D
0E
0d
0m
0k
1m
1k
#1485000
1!
1D
1E
#1490000
0!
0D
0E
#1495000
1!
1D
1E
#1500000
1&
0!
1G
0D
0E
1N
1L
1J
#1505000
1!
1D
1E
1O
1M
1K
1r
0e
1d
0c
0Z
1W
0S
1P
0L
1H
1s
0k
0[
1X
0T
1w
#1510000
0!
0D
0E
#1515000
1!
1D
1E
0M
1I
1x
1t
0l
0\
1Y
0U
0?
1>
0=
0@
1C
1<
1j
0W
1S
0i
1.
15
02
0/
10
01
1L
1[
0m
1k
0X
1T
#1520000
0!
0D
0E
#1525000
1!
1D
1E
1M
0n
1l
1\
0Y
1U
1?
0>
1=
1@
0A
0o
1W
0S
1i
0h
03
12
1/
00
11
0L
0H
1m
0u
0p
1X
0T
0v
0w
#1530000
0!
0D
0E
#1535000
1!
1D
1E
0M
0I
0x
0q
1n
1Y
0U
0?
1>
1A
0B
0<
0r
1o
1S
0i
1h
0.
04
13
10
01
0N
0[
1u
0s
1p
1T
1v
1w
#1540000
0!
0D
0E
#1545000
1!
1D
1E
0O
1x
0t
1q
0\
1U
1?
0=
1B
0C
1<
1e
0d
1c
1]
0P
0j
1i
1.
05
14
0/
11
1[
0[
#1550000
0!
0D
0E
#1555000
1!
1D
1E
#1560000
0!
0D
0E
#1565000
1!
1D
1E
#1570000
0!
0D
0E
#1575000
1!
1D
1E
#1580000
0!
0D
0E
#1585000
1!
1D
1E
#1590000
0!
0D
0E
#1595000
1!
1D
1E
#1600000
1'
1%
1#
0&
0!
1f
1R
1Q
0G
0D
0E
0J
#1605000
1!
1D
1E
0K
#1610000
0!
0D
0E
#1615000
1!
1D
1E
#1620000
1*
0!
1F
0D
0E
1Z
0S
1P
0X
1[
0w
#1625000
1!
1D
1E
0x
1\
0Y
0>
1=
0<
0.
1/
00
#1630000
0!
0D
0E
#1635000
1!
1D
1E
#1640000
1$
1"
0%
0*
0!
1V
1^
0R
0F
0D
0E
0]
0W
1S
0P
1X
1w
0T
0w
0X
1T
#1645000
1!
1D
1E
#1650000
0!
0D
0E
#1655000
1!
1D
1E
#1660000
1+
0!
1b
0D
0E
1d
#1665000
1!
1D
1E
#1670000
0!
0D
0E
#1675000
1!
1D
1E
#1680000
0#
0$
0"
0+
0!
0Q
0V
0^
0b
0D
0E
0d
0m
0k
1m
1k
#1685000
1!
1D
1E
#1690000
0!
0D
0E
#1695000
1!
1D
1E
#1700000
1&
0!
1G
0D
0E
1N
1L
1J
#1705000
1!
1D
1E
1O
1M
1K
1r
0e
1d
0c
0Z
1W
0S
1P
0L
1H
1s
0k
0[
1X
0T
1w
#1710000
0!
0D
0E
#1715000
1!
1D
1E
0M
1I
1x
1t
0l
0\
1Y
0U
0?
1>
0=
0@
1C
1<
1j
0W
1S
0i
1.
15
02
0/
10
01
1L
1[
0m
1k
0X
1T
#1720000
0!
0D
0E
#1725000
1!
1D
1E
1M
0n
1l
1\
0Y
1U
1?
0>
1=
1@
0A
0o
1W
0S
1i
03
12
1/
00
11
0L
0H
1m
0p
1X
0T
#1730000
0!
0D
0E
#1735000
1!
1D
1E
0M
0I
0q
1n
1Y
0U
0?
1>
1A
0B
0r
1o
1S
0i
04
13
10
01
0N
0s
1p
1T
#1740000
0!
0D
0E
#1745000
1!
1D
1E
0O
0t
1q
1U
1?
1B
0C
1e
0d
1c
1]
1Z
0P
0j
1i
05
14
11
#1750000
0!
0D
0E
#1755000
1!
1D
1E
#1760000
0!
0D
0E
#1765000
1!
1D
1E
#1770000
0!
0D
0E
#1775000
1!
1D
1E
#1780000
0!
0D
0E
#1785000
1!
1D
1E
#1790000
0!
0D
0E
#1795000
1!
1D
1E
#1800000
1)
0(
0'
1%
1#
0&
0!
1`
0g
0f
1R
1Q
0G
0D
0E
0u
0h
0J
0v
1u
1v
#1805000
1!
1D
1E
0K
#1810000
0!
0D
0E
#1815000
1!
1D
1E
#1820000
1*
0!
1F
0D
0E
0S
1P
0X
0w
#1825000
1!
1D
1E
0x
0Y
0>
0<
0.
00
#1830000
0!
0D
0E
#1835000
1!
1D
1E
#1840000
1$
1"
0%
0*
0!
1V
1^
0R
0F
0D
0E
0]
0W
1S
0P
1X
1w
0T
0w
0X
1T
#1845000
1!
1D
1E
#1850000
0!
0D
0E
#1855000
1!
1D
1E
#1860000
1+
0!
1b
0D
0E
1d
#1865000
1!
1D
1E
#1870000
0!
0D
0E
#1875000
1!
1D
1E
#1880000
0#
0$
0"
0+
0!
0Q
0V
0^
0b
0D
0E
0d
0m
0k
1m
1k
#1885000
1!
1D
1E
#1890000
0!
0D
0E
#1895000
1!
1D
1E
#1900000
1&
0!
1G
0D
0E
1N
1L
1J
#1905000
1!
1D
1E
1O
1M
1K
1r
0e
1d
0c
0Z
1W
0S
1P
0L
1H
1s
0k
0[
1X
0T
1w
#1910000
0!
0D
0E
#1915000
1!
1D
1E
0M
1I
1x
1t
0l
0\
1Y
0U
0?
1>
0=
0@
1C
1<
1j
0W
1S
0i
1.
15
02
0/
10
01
1L
1[
0m
1k
0X
1T
#1920000
0!
0D
0E
#1925000
1!
1D
1E
1M
0n
1l
1\
0Y
1U
1?
0>
1=
1@
0A
0o
1W
0S
1i
1h
03
12
1/
00
11
0L
0H
1m
0u
0p
1X
0T
0v
0w
#1930000
0!
0D
0E
#1935000
1!
1D
1E
0M
0I
0x
0q
1n
1Y
0U
0?
1>
1A
0B
0<
0r
1o
1S
0i
0h
0.
04
13
10
01
0N
0[
1u
0s
1p
1T
1v
1w
#1940000
0!
0D
0E
#1945000
1!
1D
1E
0O
1x
0t
1q
0\
1U
1?
0=
1B
0C
1<
1e
0d
1c
1]
0P
0j
1i
1.
05
14
0/
11
1[
0[
#1950000
0!
0D
0E
#1955000
1!
1D
1E
#1960000
0!
0D
0E
#1965000
1!
1D
1E
#1970000
0!
0D
0E
#1975000
1!
1D
1E
#1980000
0!
0D
0E
#1985000
1!
1D
1E
#1990000
0!
0D
0E
#1995000
1!
1D
1E
#2000000
1'
1%
1#
0&
0!
1f
1R
1Q
0G
0D
0E
1h
0J
0u
0v
#2005000
1!
1D
1E
0K
#2010000
0!
0D
0E
#2015000
1!
1D
1E
#2020000
1*
0!
1F
0D
0E
1Z
0S
1P
0X
1[
0w
#2025000
1!
1D
1E
0x
1\
0Y
0>
1=
0<
0.
1/
00
#2030000
0!
0D
0E
#2035000
1!
1D
1E
#2040000
1$
1"
0%
0*
0!
1V
1^
0R
0F
0D
0E
0]
0W
1S
0P
1X
1w
0T
0w
0X
1T
#2045000
1!
1D
1E
#2050000
0!
0D
0E
#2055000
1!
1D
1E
#2060000
1+
0!
1b
0D
0E
1d
#2065000
1!
1D
1E
#2070000
0!
0D
0E
#2075000
1!
1D
1E
#2080000
0#
0$
0"
0+
0!
0Q
0V
0^
0b
0D
0E
0d
0m
0k
1m
1k
#2085000
1!
1D
1E
#2090000
0!
0D
0E
#2095000
1!
1D
1E
#2100000
0!
0D
0E
#2105000
1!
1D
1E
#2110000
1&
0!
1G
0D
0E
1N
1L
1J
#2115000
1!
1D
1E
1O
1M
1K
1r
0e
1d
0c
0Z
1W
0S
1P
0L
1H
1s
0k
0[
1X
0T
#2120000
0!
0D
0E
#2125000
1!
1D
1E
0M
1I
1t
0l
0\
1Y
0U
0?
1>
0=
0@
1C
1j
0W
1S
0i
15
02
0/
10
01
1L
0m
1k
0X
1T
#2130000
0!
0D
0E
#2135000
1!
1D
1E
1M
0n
1l
0Y
1U
1?
0>
1@
0A
0o
0S
1i
03
12
00
11
0L
0H
1m
0p
0T
#2140000
0!
0D
0E
#2145000
1!
1D
1E
0M
0I
0q
1n
0U
0?
1A
0B
0r
1o
0i
04
13
01
0N
0s
1p
#2150000
0!
0D
0E
#2155000
1!
1D
1E
0O
0t
1q
1B
0C
1e
0d
1c
0P
0j
0h
05
14
1u
1v
#2160000
0!
0D
0E
#2165000
1!
1D
1E
#2170000
0!
0D
0E
#2175000
1!
1D
1E
#2180000
0!
0D
0E
#2185000
1!
1D
1E
#2190000
0!
0D
0E
#2195000
1!
1D
1E
#2200000
1(
0'
1%
1#
0&
0!
1g
0f
1R
1Q
0G
0D
0E
0J
#2205000
1!
1D
1E
0K
#2210000
0!
0D
0E
#2215000
1!
1D
1E
#2220000
1*
0!
1F
0D
0E
1]
1Z
1W
1P
1T
1[
#2225000
1!
1D
1E
1\
1U
1?
1=
1i
1h
1/
11
0u
0v
#2230000
0!
0D
0E
#2235000
1!
1D
1E
#2240000
1$
1"
0%
0*
0!
1V
1^
0R
0F
0D
0E
0]
0W
1S
0P
1X
1w
0T
0w
0X
1T
#2245000
1!
1D
1E
#2250000
0!
0D
0E
#2255000
1!
1D
1E
#2260000
1+
0!
1b
0D
0E
1d
#2265000
1!
1D
1E
#2270000
0!
0D
0E
#2275000
1!
1D
1E
#2280000
0#
0$
0"
0+
0!
0Q
0V
0^
0b
0D
0E
0d
0m
0k
1m
1k
#2285000
1!
1D
1E
#2290000
0!
0D
0E
#2295000
1!
1D
1E
#2300000
1&
0!
1G
0D
0E
1N
1L
1J
#2305000
1!
1D
1E
1O
1M
1K
1r
0e
1d
0c
0Z
1W
0S
1P
0L
1H
1s
0k
0[
1X
0T
#2310000
0!
0D
0E
#2315000
1!
1D
1E
0M
1I
1t
0l
0\
1Y
0U
0?
1>
0=
0@
1C
1j
0W
1S
0i
15
02
0/
10
01
1L
0m
1k
0X
1T
#2320000
0!
0D
0E
#2325000
1!
1D
1E
1M
0n
1l
0Y
1U
1?
0>
1@
0A
0o
0S
1i
0h
03
12
00
11
0L
0H
1m
1u
0p
0T
1v
1w
#2330000
0!
0D
0E
#2335000
1!
1D
1E
0M
0I
1x
0q
1n
0U
0?
1A
0B
1<
0r
1o
0i
1h
1.
04
13
01
0N
1[
0u
0s
1p
0v
0w
#2340000
0!
0D
0E
#2345000
1!
1D
1E
0O
0x
0t
1q
1\
1=
1B
0C
0<
1e
0d
1c
1Z
0P
0j
0h
0.
05
14
1/
0[
1u
1[
1v
#2350000
0!
0D
0E
#2355000
1!
1D
1E
#2360000
0!
0D
0E
#2365000
1!
1D
1E
#2370000
0!
0D
0E
#2375000
1!
1D
1E
#2380000
0!
0D
0E
#2385000
1!
1D
1E
#2390000
0!
0D
0E
#2395000
1!
1D
1E
#2400000
1'
1%
1#
0&
0!
1f
1R
1Q
0G
0D
0E
1h
0J
0u
0v
#2405000
1!
1D
1E
0K
#2410000
0!
0D
0E
#2415000
1!
1D
1E
#2420000
1*
0!
1F
0D
0E
1]
1W
1P
1T
#2425000
1!
1D
1E
1U
1?
1i
11
#2430000
0!
0D
0E
#2435000
1!
1D
1E
#2440000
1$
1"
0%
0*
0!
1V
1^
0R
0F
0D
0E
0]
0W
1S
0P
1X
1w
0T
0w
0X
1T
#2445000
1!
1D
1E
#2450000
0!
0D
0E
#2455000
1!
1D
1E
#2460000
1+
0!
1b
0D
0E
1d
#2465000
1!
1D
1E
#2470000
0!
0D
0E
#2475000
1!
1D
1E
#2480000
0#
0$
0"
0+
0!
0Q
0V
0^
0b
0D
0E
0d
0m
0k
1m
1k
#2485000
1!
1D
1E
#2490000
0!
0D
0E
#2495000
1!
1D
1E
#2500000
1&
0!
1G
0D
0E
1N
1L
1J
#2505000
1!
1D
1E
1O
1M
1K
1r
0e
1d
0c
0Z
1W
0S
1P
0L
1H
1s
0k
0[
1X
0T
#2510000
0!
0D
0E
#2515000
1!
1D
1E
0M
1I
1t
0l
0\
1Y
0U
0?
1>
0=
0@
1C
1j
0W
1S
0i
15
02
0/
10
01
1L
0m
1k
0X
1T
#2520000
0!
0D
0E
